<?xml version="1.0"?>

<robot name="container_020" xmlns:xacro="http://www.ros.org/wiki/xacro">

  <xacro:macro name="container_020" params="x y z yaw">

    <link name="world"/>

    <link name="container_020">
      <visual>
        <geometry>
          <mesh filename="package://robot_models/models/container_020.dae" />
        </geometry>
      </visual>
      <collision>
        <geometry>                                      
          <mesh filename="package://robot_models/models/container_020.dae" />
        </geometry>
      </collision>
    </link>

    <joint name="world_container_020_joint" type="fixed">
      <origin xyz="${x} ${y} ${z}" rpy="0 0 ${yaw}" />
      <parent link="world" />
      <child link="container_020" />
    </joint>

  </xacro:macro>

</robot>

