<?xml version="1.0"?>
<robot name="crew_lock_bag"  xmlns:xacro="http://www.ros.org/wiki/xacro">

  <xacro:arg name="x" default="0"/>
  <xacro:arg name="y" default="0"/>
  <xacro:arg name="z" default="0"/>
  <xacro:arg name="yaw" default="0"/>

  <xacro:include filename="$(find robot_models)/xacro/crew_lock_bag.xacro" />
  <xacro:crew_lock_bag x="$(arg x)" y="$(arg y)" z="$(arg z)" yaw="$(arg yaw)" />
</robot>
