<?xml version="1.0"?>
<robot name="drill_viz"  xmlns:xacro="http://www.ros.org/wiki/xacro">

  <xacro:arg name="x" default="0"/>
  <xacro:arg name="y" default="0"/>
  <xacro:arg name="z" default="0"/>
  <xacro:arg name="yaw" default="0"/>

  <xacro:include filename="$(find robot_models)/xacro/drill_viz.xacro" />
  <xacro:drill_viz x="$(arg x)" y="$(arg y)" z="$(arg z)" yaw="$(arg yaw)" />
</robot>
