<?xml version="1.0" encoding="utf-8"?>
<COLLADA xmlns="http://www.collada.org/2005/11/COLLADASchema" version="1.4.1" xmlns:xsi="http://www.w3.org/2001/XMLSchema-instance">
  <asset>
    <contributor>
      <author>Blender User</author>
      <authoring_tool>Blender 2.79.0 commit date:2017-09-11, commit time:10:43, hash:5bd8ac9abfa</authoring_tool>
    </contributor>
    <created>2018-03-04T23:48:19</created>
    <modified>2018-03-04T23:48:19</modified>
    <unit name="meter" meter="1"/>
    <up_axis>Z_UP</up_axis>
  </asset>
  <library_cameras>
    <camera id="Camera-camera" name="Camera">
      <optics>
        <technique_common>
          <perspective>
            <xfov sid="xfov">49.13434</xfov>
            <aspect_ratio>1.777778</aspect_ratio>
            <znear sid="znear">0.1</znear>
            <zfar sid="zfar">100</zfar>
          </perspective>
        </technique_common>
      </optics>
      <extra>
        <technique profile="blender">
          <shiftx sid="shiftx" type="float">0</shiftx>
          <shifty sid="shifty" type="float">0</shifty>
          <YF_dofdist sid="YF_dofdist" type="float">0</YF_dofdist>
        </technique>
      </extra>
    </camera>
  </library_cameras>
  <library_lights>
    <light id="Lamp-light" name="Lamp">
      <technique_common>
        <point>
          <color sid="color">1 1 1</color>
          <constant_attenuation>1</constant_attenuation>
          <linear_attenuation>0</linear_attenuation>
          <quadratic_attenuation>0.00111109</quadratic_attenuation>
        </point>
      </technique_common>
      <extra>
        <technique profile="blender">
          <type sid="type" type="int">0</type>
          <flag sid="flag" type="int">0</flag>
          <mode sid="mode" type="int">8192</mode>
          <gamma sid="blender_gamma" type="float">1</gamma>
          <red sid="red" type="float">1</red>
          <green sid="green" type="float">1</green>
          <blue sid="blue" type="float">1</blue>
          <shadow_r sid="blender_shadow_r" type="float">0</shadow_r>
          <shadow_g sid="blender_shadow_g" type="float">0</shadow_g>
          <shadow_b sid="blender_shadow_b" type="float">0</shadow_b>
          <energy sid="blender_energy" type="float">1</energy>
          <dist sid="blender_dist" type="float">29.99998</dist>
          <spotsize sid="spotsize" type="float">75</spotsize>
          <spotblend sid="spotblend" type="float">0.15</spotblend>
          <halo_intensity sid="blnder_halo_intensity" type="float">1</halo_intensity>
          <att1 sid="att1" type="float">0</att1>
          <att2 sid="att2" type="float">1</att2>
          <falloff_type sid="falloff_type" type="int">2</falloff_type>
          <clipsta sid="clipsta" type="float">1.000799</clipsta>
          <clipend sid="clipend" type="float">30.002</clipend>
          <bias sid="bias" type="float">1</bias>
          <soft sid="soft" type="float">3</soft>
          <compressthresh sid="compressthresh" type="float">0.04999995</compressthresh>
          <bufsize sid="bufsize" type="int">2880</bufsize>
          <samp sid="samp" type="int">3</samp>
          <buffers sid="buffers" type="int">1</buffers>
          <filtertype sid="filtertype" type="int">0</filtertype>
          <bufflag sid="bufflag" type="int">0</bufflag>
          <buftype sid="buftype" type="int">2</buftype>
          <ray_samp sid="ray_samp" type="int">1</ray_samp>
          <ray_sampy sid="ray_sampy" type="int">1</ray_sampy>
          <ray_sampz sid="ray_sampz" type="int">1</ray_sampz>
          <ray_samp_type sid="ray_samp_type" type="int">0</ray_samp_type>
          <area_shape sid="area_shape" type="int">1</area_shape>
          <area_size sid="area_size" type="float">0.1</area_size>
          <area_sizey sid="area_sizey" type="float">0.1</area_sizey>
          <area_sizez sid="area_sizez" type="float">1</area_sizez>
          <adapt_thresh sid="adapt_thresh" type="float">0.000999987</adapt_thresh>
          <ray_samp_method sid="ray_samp_method" type="int">1</ray_samp_method>
          <shadhalostep sid="shadhalostep" type="int">0</shadhalostep>
          <sun_effect_type sid="sun_effect_type" type="int">0</sun_effect_type>
          <skyblendtype sid="skyblendtype" type="int">1</skyblendtype>
          <horizon_brightness sid="horizon_brightness" type="float">1</horizon_brightness>
          <spread sid="spread" type="float">1</spread>
          <sun_brightness sid="sun_brightness" type="float">1</sun_brightness>
          <sun_size sid="sun_size" type="float">1</sun_size>
          <backscattered_light sid="backscattered_light" type="float">1</backscattered_light>
          <sun_intensity sid="sun_intensity" type="float">1</sun_intensity>
          <atm_turbidity sid="atm_turbidity" type="float">2</atm_turbidity>
          <atm_extinction_factor sid="atm_extinction_factor" type="float">1</atm_extinction_factor>
          <atm_distance_factor sid="atm_distance_factor" type="float">1</atm_distance_factor>
          <skyblendfac sid="skyblendfac" type="float">1</skyblendfac>
          <sky_exposure sid="sky_exposure" type="float">1</sky_exposure>
          <sky_colorspace sid="sky_colorspace" type="int">0</sky_colorspace>
        </technique>
      </extra>
    </light>
  </library_lights>
  <library_images>
    <image id="crwlckbg_tga" name="crwlckbg_tga">
      <init_from>crwlckbg.tga</init_from>
    </image>
  </library_images>
  <library_effects>
    <effect id="crwlckbg1_1-effect">
      <profile_COMMON>
        <newparam sid="crwlckbg_tga-surface">
          <surface type="2D">
            <init_from>crwlckbg_tga</init_from>
          </surface>
        </newparam>
        <newparam sid="crwlckbg_tga-sampler">
          <sampler2D>
            <source>crwlckbg_tga-surface</source>
          </sampler2D>
        </newparam>
        <technique sid="common">
          <phong>
            <emission>
              <color sid="emission">0 0 0 1</color>
            </emission>
            <ambient>
              <color sid="ambient">0 0 0 1</color>
            </ambient>
            <diffuse>
              <texture texture="crwlckbg_tga-sampler"/>
            </diffuse>
            <specular>
              <color sid="specular">0.4490196 0.4490196 0.4490196 1</color>
            </specular>
            <shininess>
              <float sid="shininess">50</float>
            </shininess>
            <index_of_refraction>
              <float sid="index_of_refraction">1</float>
            </index_of_refraction>
          </phong>
        </technique>
      </profile_COMMON>
    </effect>
  </library_effects>
  <library_materials>
    <material id="crwlckbg1_1-material" name="crwlckbg1_1">
      <instance_effect url="#crwlckbg1_1-effect"/>
    </material>
  </library_materials>
  <library_geometries>
    <geometry id="crewlockba-mesh" name="crewlockba">
      <mesh>
        <source id="crewlockba-mesh-positions">
          <float_array id="crewlockba-mesh-positions-array" count="1215">-4.8622 -1.1616 5.2566 0.2943 -1.1616 5.0511 0.2943 1.1612 5.0511 -4.8622 1.1612 5.2566 -4.8622 1.1612 5.2566 -4.8622 1.378 5.1133 -5.0081 1.3145 5.1133 -5.0685 1.1612 5.1133 -5.0685 -1.1616 5.1133 -4.8622 -1.1616 5.2566 -4.8622 -1.1616 5.2566 -5.0685 -1.1616 5.1133 -5.0081 -1.3142 5.1133 -4.8622 -1.3773 5.1133 0.2943 -1.3773 4.9078 0.2943 -1.1616 5.0511 4.8533 -1.1616 5.2566 4.8533 -1.3773 5.1133 5.0139 -1.3142 5.1133 5.0804 -1.1616 5.1133 5.0804 1.1612 5.1133 4.8533 1.1612 5.2566 4.8533 -1.1616 5.2566 5.0804 -1.1616 5.1133 5.0139 1.3145 5.1133 4.8533 1.378 5.1133 0.2943 1.378 4.9078 0.2943 1.1612 5.0511 -6.9392 2.6163 2.6454 -6.7321 2.7056 2.6454 -7.025 2.4009 2.6454 -7.025 -2.4009 2.6454 -5.0685 -1.1616 5.1133 -5.0685 1.1612 5.1133 -7.025 2.4009 2.6454 -6.9392 -2.6163 2.6454 -7.025 -2.4009 2.6454 -6.7321 -2.7056 2.6454 6.7153 -2.7056 2.6454 6.9392 -2.6163 2.6454 6.7321 -2.7056 2.6454 7.025 -2.4009 2.6454 7.025 2.4009 2.6454 5.0804 1.1612 5.1133 5.0804 -1.1616 5.1133 7.025 -2.4009 2.6454 6.9392 2.6163 2.6454 7.025 2.4009 2.6454 6.7237 2.7056 2.6454 -6.9392 2.6163 -7.4271 -6.7321 2.7056 -7.4271 -7.025 2.4009 -7.4271 -7.025 -2.4009 -7.4271 -7.025 2.4009 -7.4271 -6.9392 -2.6163 -7.4271 -7.025 -2.4009 -7.4271 -6.7321 -2.7056 -7.4271 6.7321 -2.7056 -7.4271 6.9392 -2.6163 -7.4271 7.025 -2.4009 -7.4271 7.025 2.4009 -7.4271 7.025 -2.4009 -7.4271 6.9392 2.6163 -7.4271 7.025 2.4009 -7.4271 6.7321 2.7056 -7.4271 -6.8785 2.5533 -7.6425 -6.7321 2.6163 -7.6425 -6.9392 2.4009 -7.6425 -6.9392 -2.4009 -7.6425 -6.9392 2.4009 -7.6425 -6.8785 -2.5533 -7.6425 -6.9392 -2.4009 -7.6425 -6.7321 -2.6163 -7.6425 6.7321 -2.6163 -7.6425 6.8785 -2.5533 -7.6425 6.9392 -2.4009 -7.6425 6.9392 2.4009 -7.6425 6.9392 -2.4009 -7.6425 6.8785 2.5533 -7.6425 6.9392 2.4009 -7.6425 6.7321 2.6163 -7.6425 -6.7321 2.4009 -7.7317 -6.7321 -2.4009 -7.7317 -6.7321 2.4009 -7.7317 -6.9392 -2.4009 -7.6425 -6.7321 -2.4009 -7.7317 -6.8785 -2.5533 -7.6425 -6.7321 -2.6163 -7.6425 6.7321 -2.4009 -7.7317 6.7321 -2.6163 -7.6425 6.8785 -2.5533 -7.6425 6.9392 -2.4009 -7.6425 6.7321 2.4009 -7.7317 6.7321 -2.4009 -7.7317 6.7321 2.4009 -7.7317 -6.7321 -2.4009 -7.7317 -6.7321 2.4009 -7.7317 6.7321 2.4009 -7.7317 6.7321 -2.4009 -7.7317 4.8533 -1.1616 5.2566 4.8533 1.1612 5.2566 -4.1451 0.3987 7.1276 -3.3374 0.3987 7.1276 -3.3374 -0.399 7.1276 -4.1451 -0.399 7.1276 -4.1451 -0.399 7.7317 -3.3698 -0.399 7.7317 -3.3698 -0.2837 7.7317 -4.1451 -0.2837 7.7317 -3.3698 -0.4459 7.16 -3.3698 -0.4459 7.6993 -4.1451 -0.4459 7.6993 -4.1451 -0.4459 7.16 -4.1775 0.3987 7.6993 -4.1775 0.3987 7.16 -4.1775 0.282 7.16 -4.1775 0.2816 7.6993 -0.007099986 -0.2833 7.1892 -0.007099986 -0.3567 7.1892 -3.3375 -0.3567 7.1892 -3.3375 0.3565 7.1892 -0.007099986 0.3565 7.1892 -0.007099986 0.282 7.1892 -3.3375 -0.3567 7.6701 -0.007099986 -0.3567 7.6701 -0.007099986 -0.2837 7.6701 -3.3375 -0.2837 7.6701 -4.1451 0.4456 7.16 -4.1451 0.4456 7.6993 -3.3698 0.4456 7.6993 -3.3698 0.4456 7.16 -3.3375 0.3565 7.6701 -0.007099986 0.3565 7.6701 -3.3375 0.3565 7.1892 -3.3375 -0.3567 7.1892 -3.3374 -0.399 7.16 -3.3374 0.3987 7.16 -3.3374 -0.2837 7.6993 -3.3374 -0.399 7.6993 -3.3375 -0.3567 7.6701 -3.3375 -0.2837 7.6701 -3.3375 0.3565 7.6701 -3.3374 0.3987 7.6993 -4.1775 -0.399 7.16 -4.1775 -0.399 7.6993 -4.1451 0.3987 7.7317 -3.3698 0.3987 7.7317 -4.1775 -0.2832 7.16 -4.1775 -0.2837 7.6993 -4.1451 0.2816 7.7317 -3.3698 0.2816 7.7317 -4.1775 0.2816 7.2639 -4.1775 -0.2837 7.2639 -3.3375 0.2816 7.6701 -0.007099986 0.2816 7.6701 -3.3374 0.2816 7.6993 -3.3375 0.2816 7.6701 -4.1453 -0.2837 7.2946 -0.007099986 -0.2837 7.2946 -0.007099986 0.2816 7.2946 -4.1457 0.2816 7.2946 -4.1453 -0.2837 7.2946 -4.1457 0.2816 7.2946 -3.1104 -0.8018 5.0232 -3.521 -0.9996 5.0232 -3.9768 -0.9996 5.0232 -4.3874 -0.8018 5.0232 -4.6716 -0.4455 5.0232 -4.773 -0.001099944 5.0232 -4.6716 0.4432 5.0232 -4.3874 0.7995 5.0232 -3.9768 0.9973 5.0232 -3.521 0.9973 5.0232 -3.1104 0.7995 5.0232 -2.8262 0.4432 5.0232 -2.7248 -0.001099944 5.0232 -2.8262 -0.4455 5.0232 -2.7248 -0.001099944 5.0232 -2.8262 0.4432 5.0232 -2.8262 0.4432 5.3516 -2.7248 -0.001099944 5.3516 -3.1104 0.7995 5.0232 -3.1104 0.7995 5.3516 -3.521 0.9973 5.0232 -3.521 0.9973 5.3516 -3.9768 0.9973 5.0232 -3.9768 0.9973 5.3516 -3.9768 0.9973 5.0232 -4.3874 0.7995 5.0232 -4.3874 0.7995 5.3516 -3.9768 0.9973 5.3516 -4.6716 0.4432 5.0232 -4.6716 0.4432 5.3516 -4.773 -0.001099944 5.0232 -4.773 -0.001099944 5.3516 -4.6716 -0.4455 5.0232 -4.6716 -0.4455 5.3516 -4.3874 -0.8018 5.0232 -4.3874 -0.8018 5.3516 -3.9768 -0.9996 5.0232 -3.9768 -0.9996 5.3516 -3.521 -0.9996 5.0232 -3.521 -0.9996 5.3516 -3.1104 -0.8018 5.0232 -3.1104 -0.8018 5.3516 -2.8262 -0.4455 5.0232 -2.8262 -0.4455 5.3516 -2.7248 -0.001099944 5.3516 -2.8262 0.4432 5.3516 -3.5372 0.04719996 6.3446 -3.1104 0.7995 5.3516 -3.6547 0.1945 6.3446 -3.521 0.9973 5.3516 -3.9768 0.9973 5.3516 -3.8431 0.1945 6.3446 -4.3874 0.7995 5.3516 -4.6716 0.4432 5.3516 -3.9607 0.04719996 6.3446 -4.773 -0.001099944 5.3516 -4.6716 -0.4455 5.3516 -3.9187 -0.1365 6.3446 -4.3874 -0.8018 5.3516 -3.9768 -0.9996 5.3516 -3.7489 -0.2183 6.3446 -3.521 -0.9996 5.3516 -3.1104 -0.8018 5.3516 -3.5791 -0.1365 6.3446 -2.8262 -0.4455 5.3516 -3.6408 0.02359998 7.4297 -3.7008 0.0988 7.4297 -3.797 0.0988 7.4297 -3.8571 0.02359998 7.4297 -3.8356 -0.07029998 7.4297 -3.7489 -0.1121 7.4297 -3.6622 -0.07029998 7.4297 -3.6547 0.1945 7.349 -3.5372 0.04719996 7.349 -3.5372 0.04719996 6.3446 -3.6547 0.1945 6.3446 -3.8431 0.1945 7.349 -3.8431 0.1945 6.3446 -3.9607 0.04719996 7.349 -3.8431 0.1945 7.349 -3.8431 0.1945 6.3446 -3.9607 0.04719996 6.3446 -3.9187 -0.1365 7.349 -3.9187 -0.1365 6.3446 -3.7489 -0.2183 7.349 -3.7489 -0.2183 6.3446 -3.5791 -0.1365 7.349 -3.5791 -0.1365 6.3446 -3.5372 0.04719996 7.349 -3.6547 0.1945 7.349 -3.8431 0.1945 7.349 -3.9607 0.04719996 7.349 -3.9187 -0.1365 7.349 -3.7489 -0.2183 7.349 -3.5791 -0.1365 7.349 4.131 0.3987 7.1276 3.3232 -0.399 7.1276 3.3232 0.3987 7.1276 4.131 -0.399 7.1276 4.131 -0.399 7.7317 3.3556 -0.2837 7.7317 3.3556 -0.399 7.7317 4.131 -0.2837 7.7317 3.3556 -0.4459 7.16 4.131 -0.4459 7.6993 3.3556 -0.4459 7.6993 4.131 -0.4459 7.16 4.1634 0.3987 7.6993 4.1634 0.282 7.16 4.1634 0.3987 7.16 4.1634 0.2816 7.6993 3.3233 -0.3567 7.1892 3.3233 0.3565 7.1892 3.3233 -0.3567 7.6701 3.3233 -0.2837 7.6701 4.131 0.4456 7.16 3.3556 0.4456 7.6993 4.131 0.4456 7.6993 3.3556 0.4456 7.16 3.3233 0.3565 7.6701 3.3233 0.3565 7.1892 3.3233 -0.399 7.16 3.3233 -0.3567 7.1892 3.3233 0.3987 7.16 3.3233 -0.2837 7.6993 3.3233 -0.3567 7.6701 3.3233 -0.399 7.6993 3.3233 -0.2837 7.6701 3.3233 0.3565 7.6701 3.3233 0.3987 7.6993 4.1634 -0.399 7.16 4.1634 -0.399 7.6993 4.131 0.3987 7.7317 3.3556 0.3987 7.7317 4.1634 -0.2832 7.16 4.1634 -0.2837 7.6993 4.131 0.2816 7.7317 3.3556 0.2816 7.7317 4.1634 0.2816 7.2639 4.1634 -0.2837 7.2639 3.3233 0.2816 7.6701 3.3233 0.2816 7.6993 3.3233 0.2816 7.6701 4.1312 -0.2837 7.2946 4.1315 0.2816 7.2946 4.1315 0.2816 7.2946 4.1312 -0.2837 7.2946 3.0962 -0.8018 5.0232 3.9627 -0.9996 5.0232 3.5069 -0.9996 5.0232 4.6575 -0.4455 5.0232 4.3733 -0.8018 5.0232 4.6575 0.4432 5.0232 4.7589 -0.001099944 5.0232 3.9627 0.9973 5.0232 4.3733 0.7995 5.0232 3.0962 0.7995 5.0232 3.5069 0.9973 5.0232 2.7107 -0.001099944 5.0232 2.8121 0.4432 5.0232 2.8121 -0.4455 5.0232 2.7107 -0.001099944 5.0232 2.8121 0.4432 5.3516 2.8121 0.4432 5.0232 2.7107 -0.001099944 5.3516 3.0962 0.7995 5.3516 3.0962 0.7995 5.0232 3.5069 0.9973 5.3516 3.5069 0.9973 5.0232 3.9627 0.9973 5.3516 3.9627 0.9973 5.0232 3.9627 0.9973 5.0232 4.3733 0.7995 5.3516 4.3733 0.7995 5.0232 3.9627 0.9973 5.3516 4.6575 0.4432 5.3516 4.6575 0.4432 5.0232 4.7589 -0.001099944 5.3516 4.7589 -0.001099944 5.0232 4.6575 -0.4455 5.3516 4.6575 -0.4455 5.0232 4.3733 -0.8018 5.3516 4.3733 -0.8018 5.0232 3.9627 -0.9996 5.3516 3.9627 -0.9996 5.0232 3.5069 -0.9996 5.3516 3.5069 -0.9996 5.0232 3.0962 -0.8018 5.3516 3.0962 -0.8018 5.0232 2.8121 -0.4455 5.3516 2.8121 -0.4455 5.0232 2.7107 -0.001099944 5.3516 3.523 0.04719996 6.3446 2.8121 0.4432 5.3516 3.6405 0.1945 6.3446 3.0962 0.7995 5.3516 3.5069 0.9973 5.3516 3.829 0.1945 6.3446 3.9627 0.9973 5.3516 4.3733 0.7995 5.3516 3.9465 0.04719996 6.3446 4.6575 0.4432 5.3516 4.7589 -0.001099944 5.3516 3.9046 -0.1365 6.3446 4.6575 -0.4455 5.3516 4.3733 -0.8018 5.3516 3.7348 -0.2183 6.3446 3.9627 -0.9996 5.3516 3.5069 -0.9996 5.3516 3.565 -0.1365 6.3446 3.0962 -0.8018 5.3516 2.8121 -0.4455 5.3516 3.6266 0.02359998 7.4297 3.7829 0.0988 7.4297 3.6866 0.0988 7.4297 3.8215 -0.07029998 7.4297 3.8429 0.02359998 7.4297 3.7348 -0.1121 7.4297 3.648 -0.07029998 7.4297 3.6405 0.1945 7.349 3.523 0.04719996 6.3446 3.523 0.04719996 7.349 3.6405 0.1945 6.3446 3.829 0.1945 7.349 3.829 0.1945 6.3446 3.9465 0.04719996 7.349 3.829 0.1945 6.3446 3.829 0.1945 7.349 3.9465 0.04719996 6.3446 3.9046 -0.1365 7.349 3.9046 -0.1365 6.3446 3.7348 -0.2183 7.349 3.7348 -0.2183 6.3446 3.565 -0.1365 7.349 3.565 -0.1365 6.3446 3.523 0.04719996 7.349 3.6405 0.1945 7.349 3.829 0.1945 7.349 3.9465 0.04719996 7.349 3.9046 -0.1365 7.349 3.7348 -0.2183 7.349 3.565 -0.1365 7.349</float_array>
          <technique_common>
            <accessor source="#crewlockba-mesh-positions-array" count="405" stride="3">
              <param name="X" type="float"/>
              <param name="Y" type="float"/>
              <param name="Z" type="float"/>
            </accessor>
          </technique_common>
        </source>
        <source id="crewlockba-mesh-normals">
          <float_array id="crewlockba-mesh-normals-array" count="1059">0.03982096 0 0.9992069 0.03982108 0 0.9992069 -0.2333626 0.5361875 0.8111996 -0.5566053 0.2193015 0.8013098 -0.5704944 0 0.8213015 -0.5704922 0 0.8213031 -0.5564805 -0.2202587 0.801134 -0.232753 -0.5381675 0.8100628 0.03317654 -0.5530567 0.8324828 0.03317654 -0.5530587 0.8324815 0.2124574 -0.5407297 0.8139247 0.5197723 -0.2265074 0.8237301 0.5336449 0 0.8457087 0.5336427 0 0.84571 0.5198951 0.2255258 0.8239219 0.2130193 0.5387542 0.815087 -0.03757709 0.5510199 0.8336457 -0.03757703 0.5510212 0.8336448 -0.3122372 0.7174167 0.622753 -0.3100945 0.7191518 0.6218216 -0.6841114 0.2695393 0.6777465 -0.6829602 0.2720424 0.6779074 -0.7836214 0 0.6212387 -0.7836213 0 0.6212389 -0.6836857 -0.270607 0.6777505 -0.6828955 -0.2720167 0.6779828 -0.3107593 -0.7185388 0.6221983 -0.3100428 -0.7190376 0.6219795 0 -0.8805559 0.4739424 0.02199333 -0.8336419 0.5518675 0.2888536 -0.735188 0.6132392 0.3098397 -0.7185608 0.6226313 0.6736606 -0.2935645 0.6782339 0.6836876 -0.2723327 0.677057 0.7854618 0 0.6189103 0.7854616 0 0.6189104 0.6732573 0.2920494 0.6792877 0.6844005 0.2726167 0.676222 0.2900769 0.7336466 0.6145063 0.3009809 0.7263319 0.6179422 -0.02079677 0.8869606 0.4613766 -0.3959517 0.9182714 0 -0.9290103 0.370054 0 -0.9290126 0.3700484 0 -1 0 0 -0.9290125 -0.3700484 0 -0.9290103 -0.370054 0 -0.3959517 -0.9182714 0 0 -1 0 0 -1 0 0.3959517 -0.9182714 0 0.9290103 -0.370054 0 0.9290126 -0.3700484 0 1 0 0 0.9290125 0.3700484 0 0.9290103 0.370054 0 0.3828184 0.9238235 3.1928e-4 0.3959517 0.9182714 0 0 1 0 -0.3701108 0.85834 -0.355346 -0.369407 0.8584212 -0.3558815 -0.8712686 0.3470515 -0.3470537 -0.8712865 0.3470313 -0.3470289 -0.9290112 0 -0.3700519 -0.9290102 0 -0.3700543 -0.8712739 -0.3470581 -0.347034 -0.8712792 -0.347022 -0.3470568 -0.3700447 -0.8581866 -0.3557847 -0.3694987 -0.8586382 -0.3552622 0 -0.9237604 -0.3829712 0.3701108 -0.85834 -0.355346 0.369407 -0.8584212 -0.3558815 0.8712686 -0.3470515 -0.3470537 0.8712865 -0.3470313 -0.3470289 0.9290112 0 -0.3700519 0.9290102 0 -0.3700543 0.8712739 0.3470581 -0.347034 0.8712792 0.347022 -0.3470568 0.3700447 0.8581866 -0.3557847 0.3694987 0.8586382 -0.3552622 0 0.9237604 -0.3829712 -0.1624557 0.3775218 -0.911639 -0.3907593 0.1556375 -0.9072399 -0.395579 0 -0.9184319 -0.3907593 -0.1556375 -0.9072399 -0.1624557 -0.3775218 -0.911639 0 -0.382604 -0.9239125 0.1624557 -0.3775218 -0.911639 0.3907593 -0.1556375 -0.9072399 0.395579 0 -0.9184319 0.3907593 0.1556375 -0.9072399 0.1624557 0.3775218 -0.911639 0 0.382604 -0.9239125 0 0 -1 -0.04503005 0 0.9989857 -0.04502987 0 0.9989857 -0.03751885 -0.5529737 0.8323536 -0.03751885 -0.5529716 0.8323551 0.03322798 0.5511062 0.8337733 0.03322798 0.5511046 0.8337743 0 -0.8805654 0.4739247 -0.02080786 -0.8868328 0.4616217 0 0.8806601 0.4737488 0.02198779 0.8337334 0.5517293 0 0 1 3.36322e-6 0 -1 -5.06553e-7 0 -1 0.9999942 0 0.003429234 1 1.33323e-4 0 0.9999948 -1.32328e-4 0.003238976 0.9999942 0 -0.003429174 0.9999942 0 -0.003429472 0.9999972 0.002371907 0 0.9999972 0.002369105 0 0.9999973 -0.002381205 0 0.9999973 -0.00237149 0 -0.6353597 -0.4389126 -0.6353535 -0.63536 0.4389128 -0.635353 -0.6353562 -0.4389226 0.6353499 -0.6353565 0.4389228 0.6353495 0.8227611 0.5683874 0 0.8227611 -0.5683874 0 0.6353527 -0.4389203 0.6353551 0.6353524 0.43892 0.6353555 0 0.5683841 -0.8227634 0 0.5683846 -0.822763 0 -0.5683846 -0.822763 -0.7071107 0 -0.707103 -0.7070982 0 -0.7071154 -0.7072073 0 -0.7070062 -0.7070916 0 -0.7071219 0.707111 0 0.7071025 0.7070999 0 0.7071137 0 0.56839 0.8227593 0 0.5683903 0.8227592 -0.7071051 0 0.7071086 -0.7071163 0 0.7070973 0 -0.56839 0.8227593 0 -0.5683903 0.8227592 0.8227581 -0.5683917 0 -0.8227618 -0.5683865 0 -0.822769 -0.568376 0 -0.822769 0.568376 0 -0.8227618 0.5683865 0 0.8227581 0.5683917 0 0.9999942 0 -0.003429174 0.9999942 0 -0.003429293 0.7071085 0 0.7071051 0.7070975 0 0.7071162 -0.7071026 0 0.707111 -0.7071138 0 0.7070999 -0.6900349 -4.89408e-4 0.723776 -0.6945815 0 0.719414 0 1 0 0 1 1.2655e-6 0 1 0 0 -1 0 0 -1 0 0 -1 0 5.29148e-6 0 -1 -2.64668e-6 0 -1 3.86101e-7 0 -1 -2.86096e-7 0 -1 1.05764e-5 0 -1 0.9749319 0.2225037 0 0.9749322 0.2225022 0 0.7817664 0.6235716 0 0.7817679 0.6235696 0 0.4339998 0.9009131 0 0.4340018 0.9009121 0 -0.4339998 0.9009131 0 -0.4340011 0.9009123 0 -0.7817664 0.6235716 0 -0.7817683 0.6235691 0 -0.9749317 0.2225044 0 -0.9749326 0.2225007 0 -0.9749433 -0.2224537 0 -0.9749428 -0.222456 0 -0.781767 -0.6235706 0 -0.7817676 -0.62357 0 -0.4339992 -0.9009133 0 -0.4340011 -0.9009125 0 0.4339998 -0.9009131 0 0.4340011 -0.9009125 0 0.7817667 -0.6235711 0 0.7817676 -0.62357 0 0.9749429 -0.2224552 0 0.9749429 -0.2224553 0 0.7662048 0.1748657 0.6183465 0.6079485 0.4849251 0.6286861 0.6079365 0.4849452 0.6286824 0.3410853 0.7080356 0.6183416 0 0.7776497 0.6286979 0 0.7776491 0.6286988 -0.3410847 0.7080353 0.6183424 -0.607974 0.4849436 0.6286473 -0.6077148 0.4851828 0.6287133 -0.7662411 0.1748757 0.6182987 -0.7581736 -0.1729958 0.6286853 -0.7581507 -0.1733391 0.6286184 -0.614399 -0.4900701 0.6183408 -0.3375021 -0.7005974 0.6286937 -0.3375085 -0.7005917 0.6286965 0 -0.7859008 0.6183526 0.3375014 -0.7005968 0.6286946 0.3375064 -0.7005954 0.6286936 0.6143989 -0.4900701 0.6183409 0.7581683 -0.1729929 0.6286925 0.7581915 -0.1729362 0.6286802 -1.64195e-5 0 1 3.66247e-6 0 1 -8.13009e-6 0 1 3.29007e-5 0 1 0.7817469 0.623596 0 0.7817485 0.6235938 0 -0.7814902 0.6239176 0 -0.7814894 0.6239185 0 -0.9748454 -0.2228825 0 -0.9748452 -0.2228828 0 -0.4340062 -0.90091 0 -0.4340071 -0.9009095 0 0.4340071 -0.9009095 0 0.9749602 -0.2223796 0 0.9749607 -0.2223775 0 0.5039151 0.4020521 0.7644762 0.5038999 0.4019627 0.7645332 0 0.6446517 0.7644766 0 0.644651 0.7644771 -0.5034065 0.4023208 0.7646698 -0.5038276 0.402243 0.7644334 -0.628308 -0.1438683 0.7645464 -0.6281943 -0.1436225 0.7646861 -0.2799231 -0.5806155 0.7645447 -0.2798218 -0.5808569 0.7643985 0.2800269 -0.5808206 0.764351 0.2797688 -0.5807521 0.7644975 0.628411 -0.1432119 0.764585 0.6282904 -0.1433048 0.7646666 -3.36322e-6 0 -1 5.06553e-7 0 -1 -0.9999952 -1.19321e-4 0.003083348 -0.9999952 0 0.003083288 -1 1.18431e-4 1.70944e-4 -1 4.39518e-6 0 -1 -3.26602e-6 0 -1 3.67132e-6 0 -1 -3.92852e-6 0 0.6353527 -0.4389203 -0.6353551 0.6353524 0.43892 -0.6353555 -0.8235772 0.5671986 0.002539753 -0.8235772 -0.5671986 0.002539932 -0.6365201 -0.4383785 0.6345602 -0.6365201 0.4383785 0.6345602 0 0.5683847 -0.8227631 0 0.5683847 -0.8227629 0 -0.5683851 -0.8227627 0 -0.5683841 -0.8227635 0.7071054 0 -0.7071082 0.707093 0 -0.7071207 0.7072021 0 -0.7070114 0.7070865 0 -0.7071272 -0.7082022 0 0.7060098 -0.7081907 0 0.7060213 0 0.5683906 0.8227589 0 0.56839 0.8227594 0.7070997 0 0.7071139 0.7071112 0 0.7071024 0 -0.56839 0.8227594 0 -0.5683906 0.8227589 -0.8235777 -0.5672035 0 -0.8235814 -0.5671983 0 0.8227618 -0.5683865 0 0.8227618 0.5683865 0 -0.8235814 0.5671983 0 -0.8235777 0.5672035 0 -0.7081996 0 0.7060123 -0.7081883 0 0.7060236 0.6900296 -3.6735e-4 0.7237811 0.6934452 0 0.7205094 0.9999991 0.00136888 0 0 1 0 0 1 0 0 -1 0 -0.9999995 -0.001095175 0 0 -1 0 -5.29146e-6 0 -1 2.64668e-6 0 -1 -3.86066e-7 0 -1 2.86079e-7 0 -1 -1.05817e-5 0 -1 -0.974932 0.2225029 0 -0.9749321 0.222503 0 -0.7818731 0.6234377 0 -0.7818743 0.6234362 0 -0.4339138 0.9009544 0 -0.4339164 0.9009532 0 0.4339991 0.9009133 0 0.7817683 0.6235691 0 0.9749317 0.2225044 0 0.9749428 -0.222456 0 0.781767 -0.6235706 0 0.4340004 -0.9009127 0 -0.4339145 -0.9009541 0 -0.4339151 -0.9009538 0 -0.7818731 -0.6234377 0 -0.7818743 -0.6234362 0 -0.9749428 -0.222456 0 -0.9749431 -0.2224546 0 -0.766241 0.1748757 0.6182987 -0.6080387 0.4848258 0.6286755 -0.6079599 0.4849639 0.6286454 -0.3410217 0.7080751 0.6183316 0 0.7776496 0.6286981 0 0.7776506 0.6286968 0.3410847 0.7080353 0.6183424 0.6079501 0.4849262 0.6286838 0.6079323 0.4849443 0.6286871 0.7662045 0.1748657 0.6183467 0.7581735 -0.1729958 0.6286855 0.7581778 -0.1729331 0.6286975 0.614399 -0.4900701 0.6183408 0.3375023 -0.700597 0.628694 0.3375087 -0.7005921 0.6286961 0 -0.785901 0.6183524 -0.3374294 -0.7006186 0.628709 -0.3375068 -0.7005943 0.6286945 -0.6144708 -0.489956 0.6183597 -0.7582046 -0.1730028 0.6286462 -0.7580763 -0.1733201 0.6287136 1.64579e-5 0 1 -3.66247e-6 0 1 8.12424e-6 0 1 -3.28581e-5 0 1 -0.7817481 0.6235944 0 -0.7817474 0.6235954 0 0.9749601 -0.2223799 0 0.4340081 -0.900909 0 -0.4340081 -0.900909 0 -0.9748448 -0.2228852 0 -0.5039141 0.4020563 0.7644747 -0.5039004 0.4019606 0.7645341 0 0.6446529 0.7644756 0 0.6446522 0.7644761 0.5038496 0.4020019 0.7645457 0.5039352 0.4019878 0.7644968 0.6282745 -0.1431885 0.7647015 0.6283603 -0.1433219 0.7646059 0.2799233 -0.5806159 0.7645444 0.2798224 -0.5808557 0.7643993 -0.2797297 -0.5808713 0.7644214 -0.279843 -0.5809063 0.7643533 -0.6287853 -0.1433021 0.7642602 -0.6283075 -0.1436523 0.7645872</float_array>
          <technique_common>
            <accessor source="#crewlockba-mesh-normals-array" count="353" stride="3">
              <param name="X" type="float"/>
              <param name="Y" type="float"/>
              <param name="Z" type="float"/>
            </accessor>
          </technique_common>
        </source>
        <source id="crewlockba-mesh-map-0">
          <float_array id="crewlockba-mesh-map-0-array" count="3000">0.06849998 0.7754 0.2243 0.7754 0.2243 0.9235 0.06849998 0.7754 0.2243 0.9235 0.06849998 0.9235 0.069 0.7632 0.069 0.7549 0.06459999 0.7549 0.069 0.7632 0.06459999 0.7549 0.06279999 0.7549 0.06279999 0.7549 0.069 0.7632 0.069 0.7632 0.069 0.7632 0.06279999 0.7549 0.06279999 0.7549 0.5001 0.7603 0.4938 0.752 0.4957 0.752 0.5001 0.7603 0.4957 0.752 0.5001 0.752 0.5001 0.752 0.6556 0.7401 0.6556 0.7484 0.6556 0.7484 0.5001 0.7603 0.5001 0.752 0.7932 0.7603 0.7932 0.752 0.798 0.752 0.7932 0.7603 0.798 0.752 0.8 0.752 0.3691 0.7549 0.3622 0.7632 0.3622 0.7632 0.3622 0.7632 0.3691 0.7549 0.3691 0.7549 0.3622 0.7632 0.3691 0.7549 0.3671 0.7549 0.3622 0.7632 0.3671 0.7549 0.3622 0.7549 0.3622 0.7549 0.2246 0.7429 0.2246 0.7512 0.2246 0.7512 0.3622 0.7632 0.3622 0.7549 0.006399989 0.6114 0.06459999 0.7549 0.069 0.7549 0.069 0.7549 0.0126 0.6114 0.006399989 0.6114 0.003799974 0.6114 0.06279999 0.7549 0.06459999 0.7549 0.06459999 0.7549 0.006399989 0.6114 0.003799974 0.6114 0.2009 0.6098 0.1751 0.754 0.1266 0.754 0.1266 0.754 0.1007 0.6098 0.2009 0.6098 0.4374 0.6088 0.4957 0.752 0.4938 0.752 0.4938 0.752 0.4348 0.6088 0.4374 0.6088 0.4437 0.6088 0.5001 0.752 0.4957 0.752 0.4957 0.752 0.4374 0.6088 0.4437 0.6088 0.5001 0.752 0.4437 0.6088 0.8493 0.6088 0.8493 0.6088 0.6556 0.7401 0.5001 0.752 0.8561 0.6088 0.798 0.752 0.7932 0.752 0.7932 0.752 0.8499 0.6088 0.8561 0.6088 0.8587 0.6088 0.8 0.752 0.798 0.752 0.798 0.752 0.8561 0.6088 0.8587 0.6088 0.1007 0.6098 0.1266 0.754 0.1751 0.754 0.1751 0.754 0.2009 0.6098 0.1007 0.6098 0.4251 0.6114 0.3671 0.7549 0.3691 0.7549 0.3691 0.7549 0.4277 0.6114 0.4251 0.6114 0.4186 0.6114 0.3622 0.7549 0.3671 0.7549 0.3671 0.7549 0.4251 0.6114 0.4186 0.6114 0.3622 0.7549 0.4186 0.6114 0.2246 0.7429 0.006399989 0.02579998 0.006399989 0.6114 0.0126 0.6114 0.0126 0.6114 0.0126 0.02579998 0.006399989 0.02579998 0.003799974 0.02579998 0.003799974 0.6114 0.006399989 0.6114 0.006399989 0.6114 0.006399989 0.02579998 0.003799974 0.02579998 0.2009 0.02159994 0.2009 0.6098 0.1007 0.6098 0.1007 0.6098 0.1007 0.02159994 0.2009 0.02159994 0.4374 0.02429997 0.4374 0.6088 0.4348 0.6088 0.4348 0.6088 0.4348 0.02429997 0.4374 0.02429997 0.4437 0.02429997 0.4437 0.6088 0.4374 0.6088 0.4374 0.6088 0.4374 0.02429997 0.4437 0.02429997 0.4437 0.6088 0.4437 0.02429997 0.8499 0.02429997 0.8499 0.02429997 0.8499 0.6088 0.8493 0.6088 0.4437 0.6088 0.8499 0.02429997 0.8493 0.6088 0.8561 0.02429997 0.8561 0.6088 0.8499 0.6088 0.8499 0.6088 0.8499 0.02429997 0.8561 0.02429997 0.8587 0.02429997 0.8587 0.6088 0.8561 0.6088 0.8561 0.6088 0.8561 0.02429997 0.8587 0.02429997 0.1007 0.02159994 0.1007 0.6098 0.2009 0.6098 0.2009 0.6098 0.2009 0.02159994 0.1007 0.02159994 0.4251 0.02579998 0.4251 0.6114 0.4277 0.6114 0.4277 0.6114 0.4277 0.02579998 0.4251 0.02579998 0.4189 0.02579998 0.4186 0.6114 0.4251 0.6114 0.4251 0.6114 0.4251 0.02579998 0.4189 0.02579998 0.4186 0.6114 0.4189 0.02579998 0.0126 0.02579998 0.0126 0.02579998 0.0126 0.6114 0.4186 0.6114 0.008199989 0.01319998 0.006399989 0.02579998 0.0126 0.02579998 0.0126 0.02579998 0.0126 0.01319998 0.008199989 0.01319998 0.006399989 0.01319998 0.003799974 0.02579998 0.006399989 0.02579998 0.006399989 0.02579998 0.008199989 0.01319998 0.006399989 0.01319998 0.2009 0.008999943 0.2009 0.02159994 0.1007 0.02159994 0.1007 0.02159994 0.1007 0.008999943 0.2009 0.008999943 0.4392 0.01179999 0.4374 0.02429997 0.4348 0.02429997 0.4348 0.02429997 0.4374 0.01179999 0.4392 0.01179999 0.4437 0.01179999 0.4437 0.02429997 0.4374 0.02429997 0.4374 0.02429997 0.4392 0.01179999 0.4437 0.01179999 0.8499 0.01179999 0.8499 0.02429997 0.4437 0.02429997 0.4437 0.02429997 0.4437 0.01179999 0.8499 0.01179999 0.8543 0.01179999 0.8561 0.02429997 0.8499 0.02429997 0.8499 0.02429997 0.8499 0.01179999 0.8543 0.01179999 0.8561 0.01179999 0.8587 0.02429997 0.8561 0.02429997 0.8561 0.02429997 0.8543 0.01179999 0.8561 0.01179999 0.1007 0.008999943 0.1007 0.02159994 0.2009 0.02159994 0.2009 0.02159994 0.2009 0.008999943 0.1007 0.008999943 0.4233 0.01319998 0.4251 0.02579998 0.4277 0.02579998 0.4277 0.02579998 0.4251 0.01319998 0.4233 0.01319998 0.4189 0.01319998 0.4189 0.02579998 0.4251 0.02579998 0.4251 0.02579998 0.4233 0.01319998 0.4189 0.01319998 0.0126 0.01319998 0.0126 0.02579998 0.4189 0.02579998 0.4189 0.02579998 0.4189 0.01319998 0.0126 0.01319998 0.0126 0.01319998 0.0126 0.008099973 0.008199989 0.01319998 0.008199989 0.01319998 0.0126 0.008099973 0.006399989 0.01319998 0.2009 0.003799974 0.2009 0.008999943 0.1007 0.008999943 0.1007 0.008999943 0.1007 0.003799974 0.2009 0.003799974 0.006399989 0.01319998 0.0126 0.008099973 0.008199989 0.01319998 0.008199989 0.01319998 0.0126 0.008099973 0.0126 0.01319998 0.4189 0.008099973 0.4189 0.01319998 0.0126 0.01319998 0.0126 0.01319998 0.0126 0.008099973 0.4189 0.008099973 0.4189 0.01319998 0.4189 0.008099973 0.4233 0.01319998 0.4233 0.01319998 0.4189 0.008099973 0.4251 0.01319998 0.1007 0.003799974 0.1007 0.008999943 0.2009 0.008999943 0.2009 0.008999943 0.2009 0.003799974 0.1007 0.003799974 0.4251 0.01319998 0.4189 0.008099973 0.4233 0.01319998 0.4233 0.01319998 0.4189 0.008099973 0.4189 0.01319998 0.0126 0.008099973 0.0126 0.01319998 0.4189 0.01319998 0.4189 0.01319998 0.4189 0.008099973 0.0126 0.008099973 0.01069998 0.01399999 0.01069998 0.275 0.4279 0.275 0.4279 0.275 0.4279 0.01399999 0.01069998 0.01399999 0.3621 0.7754 0.3621 0.9235 0.2243 0.9235 0.2243 0.9235 0.2243 0.7754 0.3621 0.7754 0.7932 0.752 0.7932 0.7603 0.6556 0.7484 0.6556 0.7484 0.6556 0.7401 0.7932 0.752 0.069 0.7549 0.069 0.7632 0.2246 0.7512 0.2246 0.7512 0.2246 0.7429 0.069 0.7549 0.8493 0.6088 0.8499 0.6088 0.7932 0.752 0.7932 0.752 0.6556 0.7401 0.8493 0.6088 0.4186 0.6114 0.0126 0.6114 0.069 0.7549 0.069 0.7549 0.2246 0.7429 0.4186 0.6114 0.06979995 0.9311 0.1113 0.9311 0.1113 0.9311 0.1113 0.9311 0.06979995 0.9311 0.06979995 0.9311 0.06979995 0.9989 0.1096 0.9989 0.1096 0.9989 0.1096 0.9989 0.06979995 0.9989 0.06979995 0.9989 0.1096 0.9348 0.1096 0.9953 0.06979995 0.9953 0.06979995 0.9953 0.06979995 0.9348 0.1096 0.9348 0.06809997 0.9953 0.06809997 0.9348 0.06809997 0.9348 0.06809997 0.9348 0.06809997 0.9953 0.06809997 0.9953 0.2716 0.9328 0.2716 0.9328 0.06849998 0.9328 0.06849998 0.9328 0.06849998 0.9328 0.2716 0.9328 0.06849998 0.9328 0.2716 0.9328 0.2716 0.9328 0.2716 0.9328 0.06849998 0.9328 0.2716 0.9328 0.06849998 0.9976 0.2716 0.9976 0.2716 0.9976 0.2716 0.9976 0.06849998 0.9976 0.06849998 0.9976 0.2716 0.9328 0.2716 0.9976 0.06849998 0.9976 0.06849998 0.9976 0.06849998 0.9328 0.2716 0.9328 0.06979995 0.9348 0.06979995 0.9953 0.1096 0.9953 0.1096 0.9953 0.1096 0.9348 0.06979995 0.9348 0.06849998 0.9328 0.06849998 0.9976 0.2716 0.9976 0.2716 0.9976 0.2716 0.9328 0.06849998 0.9328 0.1113 0.938 0.1113 0.938 0.1113 0.9348 0.1113 0.938 0.1113 0.9348 0.1113 0.9311 0.1113 0.9311 0.1113 0.9311 0.1113 0.9348 0.1113 0.938 0.1113 0.9311 0.1113 0.9348 0.1113 0.9953 0.1113 0.9953 0.1113 0.992 0.1113 0.992 0.1113 0.992 0.1113 0.9953 0.1113 0.938 0.1113 0.992 0.1113 0.9953 0.1113 0.9953 0.1113 0.9348 0.1113 0.938 0.1113 0.992 0.1113 0.938 0.1113 0.9348 0.1113 0.9348 0.1113 0.9953 0.1113 0.992 0.06979995 0.9348 0.06809997 0.9348 0.06979995 0.9311 0.06979995 0.9311 0.06809997 0.9348 0.06979995 0.9348 0.06809997 0.9953 0.06979995 0.9953 0.06979995 0.9989 0.06979995 0.9953 0.06809997 0.9953 0.06979995 0.9989 0.1096 0.9348 0.1113 0.9348 0.1113 0.9311 0.1113 0.9348 0.1096 0.9348 0.1113 0.9311 0.1096 0.9989 0.1096 0.9953 0.1113 0.9953 0.1113 0.9953 0.1096 0.9953 0.1096 0.9989 0.1113 0.9311 0.06979995 0.9311 0.06979995 0.9348 0.06979995 0.9348 0.1096 0.9348 0.1113 0.9311 0.1096 0.9348 0.06979995 0.9348 0.06979995 0.9311 0.06979995 0.9311 0.1113 0.9311 0.1096 0.9348 0.06809997 0.9348 0.06809997 0.9348 0.06979995 0.9311 0.06979995 0.9311 0.06979995 0.9311 0.06809997 0.9348 0.06979995 0.9311 0.06809997 0.9348 0.06809997 0.9348 0.06809997 0.9348 0.06979995 0.9311 0.06809997 0.9348 0.1096 0.9989 0.1096 0.9989 0.1113 0.9953 0.1113 0.9953 0.1113 0.9953 0.1096 0.9989 0.1096 0.9953 0.06979995 0.9953 0.06979995 0.9989 0.06979995 0.9989 0.1096 0.9989 0.1096 0.9953 0.06809997 0.9953 0.06809997 0.9953 0.06979995 0.9989 0.06979995 0.9989 0.06979995 0.9989 0.06809997 0.9953 0.1096 0.9989 0.06979995 0.9989 0.06979995 0.9953 0.06979995 0.9953 0.1096 0.9953 0.1096 0.9989 0.1096 0.9953 0.1096 0.9348 0.1113 0.9348 0.1113 0.9348 0.1113 0.9953 0.1096 0.9953 0.06809997 0.9953 0.06809997 0.9348 0.06979995 0.9348 0.06979995 0.9348 0.06979995 0.9953 0.06809997 0.9953 0.06979995 0.9953 0.06979995 0.9348 0.06809997 0.9348 0.06809997 0.9348 0.06809997 0.9953 0.06979995 0.9953 0.1113 0.9953 0.1113 0.9348 0.1096 0.9348 0.1096 0.9348 0.1096 0.9953 0.1113 0.9953 0.06979995 0.9989 0.1096 0.9989 0.1096 0.9989 0.1096 0.9989 0.06979995 0.9989 0.06979995 0.9989 0.06809997 0.9464 0.06809997 0.9348 0.06809997 0.9348 0.06809997 0.9348 0.06809997 0.9464 0.06809997 0.9464 0.06849998 0.9976 0.2716 0.9976 0.2716 0.9976 0.2716 0.9976 0.06849998 0.9976 0.06849998 0.9976 0.1113 0.9953 0.1113 0.992 0.1113 0.992 0.1113 0.992 0.1113 0.9953 0.1113 0.9953 0.1096 0.9989 0.1113 0.9953 0.1113 0.9953 0.1113 0.9953 0.1096 0.9989 0.1096 0.9989 0.06809997 0.9953 0.06979995 0.9989 0.06979995 0.9989 0.06979995 0.9989 0.06809997 0.9953 0.06809997 0.9953 0.01909995 0.947 0.2716 0.947 0.2716 0.947 0.2716 0.947 0.01909995 0.947 0.01909995 0.947 0.06809997 0.9464 0.06979995 0.9499 0.06979995 0.9499 0.06979995 0.9499 0.06809997 0.9464 0.06809997 0.9464 0.06809997 0.9953 0.06809997 0.9348 0.06809997 0.9348 0.06809997 0.9348 0.06809997 0.9953 0.06809997 0.9953 0.06979995 0.9989 0.1096 0.9989 0.06979995 0.9499 0.06809997 0.9348 0.06809997 0.9464 0.06809997 0.9953 0.2716 0.947 0.01909995 0.947 0.06849998 0.9976 0.06849998 0.9976 0.2716 0.9976 0.2716 0.947 0.1113 0.9953 0.1113 0.992 0.06979995 0.9499 0.1096 0.9989 0.1113 0.9953 0.06979995 0.9499 0.06979995 0.9499 0.06809997 0.9464 0.06809997 0.9953 0.06809997 0.9953 0.06979995 0.9989 0.06979995 0.9499 0.2716 0.9328 0.2716 0.9976 0.2716 0.947 0.1096 0.9989 0.06979995 0.9989 0.06979995 0.9499 0.06809997 0.9348 0.06809997 0.9953 0.06809997 0.9464 0.01909995 0.947 0.2716 0.947 0.2716 0.9976 0.2716 0.9976 0.06849998 0.9976 0.01909995 0.947 0.1113 0.992 0.1113 0.9953 0.06979995 0.9499 0.1113 0.9953 0.1096 0.9989 0.06979995 0.9499 0.06809997 0.9464 0.06979995 0.9499 0.06979995 0.9989 0.06979995 0.9989 0.06809997 0.9953 0.06809997 0.9464 0.2716 0.9328 0.2716 0.947 0.2716 0.9976 0.05279999 0.7405 0.04089999 0.7281 0.02779996 0.7281 0.02779996 0.7281 0.01599997 0.7405 0.007799983 0.7629 0.007799983 0.7629 0.004799962 0.7908 0.007799983 0.8186 0.02779996 0.7281 0.007799983 0.7629 0.007799983 0.8186 0.007799983 0.8186 0.01599997 0.841 0.02779996 0.8534 0.02779996 0.8534 0.04089999 0.8534 0.05279999 0.841 0.007799983 0.8186 0.02779996 0.8534 0.05279999 0.841 0.02779996 0.7281 0.007799983 0.8186 0.05279999 0.841 0.05279999 0.841 0.06099998 0.8186 0.06389999 0.7908 0.02779996 0.7281 0.05279999 0.841 0.06389999 0.7908 0.05279999 0.7405 0.02779996 0.7281 0.06389999 0.7908 0.06099998 0.7629 0.05279999 0.7405 0.06389999 0.7908 0.04679995 0.8658 0.05119997 0.8658 0.05119997 0.896 0.05119997 0.896 0.04679995 0.896 0.04679995 0.8658 0.05119997 0.8658 0.05559998 0.8658 0.05559998 0.896 0.05559998 0.896 0.05119997 0.896 0.05119997 0.8658 0.05559998 0.8658 0.06 0.8658 0.06 0.896 0.06 0.896 0.05559998 0.896 0.05559998 0.8658 0.06 0.8658 0.06439995 0.8658 0.06439995 0.896 0.06439995 0.896 0.06 0.896 0.06 0.8658 0.002999961 0.8658 0.007399976 0.8658 0.007399976 0.896 0.007399976 0.896 0.002999961 0.896 0.002999961 0.8658 0.007399976 0.8658 0.01179999 0.8658 0.01179999 0.896 0.01179999 0.896 0.007399976 0.896 0.007399976 0.8658 0.01179999 0.8658 0.0162 0.8658 0.0162 0.896 0.0162 0.896 0.01179999 0.896 0.01179999 0.8658 0.0162 0.8658 0.02059996 0.8658 0.02059996 0.896 0.02059996 0.896 0.0162 0.896 0.0162 0.8658 0.02059996 0.8658 0.02489995 0.8658 0.02489995 0.896 0.02489995 0.896 0.02059996 0.896 0.02059996 0.8658 0.02489995 0.8658 0.02929997 0.8658 0.02929997 0.896 0.02929997 0.896 0.02489995 0.896 0.02489995 0.8658 0.02929997 0.8658 0.03369998 0.8658 0.03369998 0.896 0.03369998 0.896 0.02929997 0.896 0.02929997 0.8658 0.03369998 0.8658 0.0381 0.8658 0.0381 0.896 0.0381 0.896 0.03369998 0.896 0.03369998 0.8658 0.0381 0.8658 0.04249995 0.8658 0.04249995 0.896 0.04249995 0.896 0.0381 0.896 0.0381 0.8658 0.04249995 0.8658 0.04679995 0.8658 0.04679995 0.896 0.04679995 0.896 0.04249995 0.896 0.04249995 0.8658 0.06389999 0.7908 0.06099998 0.8186 0.04049998 0.7938 0.06099998 0.8186 0.05279999 0.841 0.03709995 0.803 0.03709995 0.803 0.04049998 0.7938 0.06099998 0.8186 0.05279999 0.841 0.04089999 0.8534 0.03709995 0.803 0.04089999 0.8534 0.02779996 0.8534 0.03169995 0.803 0.03169995 0.803 0.03709995 0.803 0.04089999 0.8534 0.02779996 0.8534 0.01599997 0.841 0.03169995 0.803 0.01599997 0.841 0.007799983 0.8186 0.02829998 0.7938 0.02829998 0.7938 0.03169995 0.803 0.01599997 0.841 0.007799983 0.8186 0.004799962 0.7908 0.02829998 0.7938 0.004799962 0.7908 0.007799983 0.7629 0.02949994 0.7822 0.02949994 0.7822 0.02829998 0.7938 0.004799962 0.7908 0.007799983 0.7629 0.01599997 0.7405 0.02949994 0.7822 0.01599997 0.7405 0.02779996 0.7281 0.03439998 0.7771 0.03439998 0.7771 0.02949994 0.7822 0.01599997 0.7405 0.02779996 0.7281 0.04089999 0.7281 0.03439998 0.7771 0.04089999 0.7281 0.05279999 0.7405 0.03929996 0.7822 0.03929996 0.7822 0.03439998 0.7771 0.04089999 0.7281 0.05279999 0.7405 0.06099998 0.7629 0.03929996 0.7822 0.06099998 0.7629 0.06389999 0.7908 0.04049998 0.7938 0.04049998 0.7938 0.03929996 0.7822 0.06099998 0.7629 0.02359998 0.704 0.02029997 0.7122 0.01499998 0.7122 0.01499998 0.7122 0.01169997 0.704 0.01279997 0.6938 0.01499998 0.7122 0.01279997 0.6938 0.01759999 0.6893 0.02359998 0.704 0.01499998 0.7122 0.01759999 0.6893 0.02239996 0.6938 0.02359998 0.704 0.01759999 0.6893 0.05559998 0.9972 0.0467 0.9972 0.0467 0.9425 0.0467 0.9425 0.05559998 0.9425 0.05559998 0.9972 0.06459999 0.9972 0.05559998 0.9972 0.05559998 0.9425 0.05559998 0.9425 0.06459999 0.9425 0.06459999 0.9972 0.0108 0.9972 0.001799941 0.9972 0.001799941 0.9425 0.001799941 0.9425 0.0108 0.9425 0.0108 0.9972 0.01969999 0.9972 0.0108 0.9972 0.0108 0.9425 0.0108 0.9425 0.01969999 0.9425 0.01969999 0.9972 0.02869999 0.9972 0.01969999 0.9972 0.01969999 0.9425 0.01969999 0.9425 0.02869999 0.9425 0.02869999 0.9972 0.03769999 0.9972 0.02869999 0.9972 0.02869999 0.9425 0.02869999 0.9425 0.03769999 0.9425 0.03769999 0.9972 0.0467 0.9972 0.03769999 0.9972 0.03769999 0.9425 0.03769999 0.9425 0.0467 0.9425 0.0467 0.9972 0.02029997 0.7122 0.02359998 0.704 0.02929997 0.7066 0.02929997 0.7066 0.02279996 0.7226 0.02029997 0.7122 0.01499998 0.7122 0.02029997 0.7122 0.02279996 0.7226 0.02279996 0.7226 0.01239997 0.7226 0.01499998 0.7122 0.01169997 0.704 0.01499998 0.7122 0.01239997 0.7226 0.01239997 0.7226 0.005899965 0.7066 0.01169997 0.704 0.01279997 0.6938 0.01169997 0.704 0.005899965 0.7066 0.005899965 0.7066 0.008299946 0.6866 0.01279997 0.6938 0.01759999 0.6893 0.01279997 0.6938 0.008299946 0.6866 0.008299946 0.6866 0.01759999 0.6777 0.01759999 0.6893 0.02239996 0.6938 0.01759999 0.6893 0.01759999 0.6777 0.01759999 0.6777 0.02699995 0.6866 0.02239996 0.6938 0.02359998 0.704 0.02239996 0.6938 0.02699995 0.6866 0.02699995 0.6866 0.02929997 0.7066 0.02359998 0.704 0.06979995 0.9311 0.1113 0.9311 0.1113 0.9311 0.1113 0.9311 0.06979995 0.9311 0.06979995 0.9311 0.06979995 0.9989 0.1096 0.9989 0.1096 0.9989 0.1096 0.9989 0.06979995 0.9989 0.06979995 0.9989 0.1096 0.9348 0.06979995 0.9953 0.1096 0.9953 0.06979995 0.9953 0.1096 0.9348 0.06979995 0.9348 0.06809997 0.9953 0.06809997 0.9348 0.06809997 0.9348 0.06809997 0.9348 0.06809997 0.9953 0.06809997 0.9953 0.2716 0.9328 0.06849998 0.9328 0.2716 0.9328 0.06849998 0.9328 0.2716 0.9328 0.06849998 0.9328 0.06849998 0.9328 0.2716 0.9328 0.2716 0.9328 0.2716 0.9328 0.2716 0.9328 0.06849998 0.9328 0.06849998 0.9976 0.2716 0.9976 0.2716 0.9976 0.2716 0.9976 0.06849998 0.9976 0.06849998 0.9976 0.2716 0.9328 0.06849998 0.9976 0.2716 0.9976 0.06849998 0.9976 0.2716 0.9328 0.06849998 0.9328 0.06979995 0.9348 0.1096 0.9953 0.06979995 0.9953 0.1096 0.9953 0.06979995 0.9348 0.1096 0.9348 0.06849998 0.9328 0.2716 0.9976 0.06849998 0.9976 0.2716 0.9976 0.06849998 0.9328 0.2716 0.9328 0.1113 0.938 0.1113 0.9348 0.1113 0.938 0.1113 0.938 0.1113 0.9311 0.1113 0.9348 0.1113 0.9311 0.1113 0.9348 0.1113 0.9311 0.1113 0.938 0.1113 0.9348 0.1113 0.9311 0.1113 0.9953 0.1113 0.992 0.1113 0.9953 0.1113 0.992 0.1113 0.9953 0.1113 0.992 0.1113 0.938 0.1113 0.9953 0.1113 0.992 0.1113 0.9953 0.1113 0.938 0.1113 0.9348 0.1113 0.992 0.1113 0.9348 0.1113 0.938 0.1113 0.9348 0.1113 0.992 0.1113 0.9953 0.06979995 0.9348 0.06979995 0.9311 0.06809997 0.9348 0.06979995 0.9311 0.06979995 0.9348 0.06809997 0.9348 0.06809997 0.9953 0.06979995 0.9989 0.06979995 0.9953 0.06979995 0.9953 0.06979995 0.9989 0.06809997 0.9953 0.1096 0.9348 0.1113 0.9311 0.1113 0.9348 0.1113 0.9348 0.1113 0.9311 0.1096 0.9348 0.1096 0.9989 0.1113 0.9953 0.1096 0.9953 0.1113 0.9953 0.1096 0.9989 0.1096 0.9953 0.1113 0.9311 0.06979995 0.9348 0.06979995 0.9311 0.06979995 0.9348 0.1113 0.9311 0.1096 0.9348 0.1096 0.9348 0.06979995 0.9311 0.06979995 0.9348 0.06979995 0.9311 0.1096 0.9348 0.1113 0.9311 0.06809997 0.9348 0.06979995 0.9311 0.06809997 0.9348 0.06979995 0.9311 0.06809997 0.9348 0.06979995 0.9311 0.06979995 0.9311 0.06809997 0.9348 0.06809997 0.9348 0.06809997 0.9348 0.06809997 0.9348 0.06979995 0.9311 0.1096 0.9989 0.1113 0.9953 0.1096 0.9989 0.1113 0.9953 0.1096 0.9989 0.1113 0.9953 0.1096 0.9953 0.06979995 0.9989 0.06979995 0.9953 0.06979995 0.9989 0.1096 0.9953 0.1096 0.9989 0.06809997 0.9953 0.06979995 0.9989 0.06809997 0.9953 0.06979995 0.9989 0.06809997 0.9953 0.06979995 0.9989 0.1096 0.9989 0.06979995 0.9953 0.06979995 0.9989 0.06979995 0.9953 0.1096 0.9989 0.1096 0.9953 0.1096 0.9953 0.1113 0.9348 0.1096 0.9348 0.1113 0.9348 0.1096 0.9953 0.1113 0.9953 0.06809997 0.9953 0.06979995 0.9348 0.06809997 0.9348 0.06979995 0.9348 0.06809997 0.9953 0.06979995 0.9953 0.06979995 0.9953 0.06809997 0.9348 0.06979995 0.9348 0.06809997 0.9348 0.06979995 0.9953 0.06809997 0.9953 0.1113 0.9953 0.1096 0.9348 0.1113 0.9348 0.1096 0.9348 0.1113 0.9953 0.1096 0.9953 0.06979995 0.9989 0.1096 0.9989 0.1096 0.9989 0.1096 0.9989 0.06979995 0.9989 0.06979995 0.9989 0.06809997 0.9464 0.06809997 0.9348 0.06809997 0.9348 0.06809997 0.9348 0.06809997 0.9464 0.06809997 0.9464 0.06849998 0.9976 0.2716 0.9976 0.2716 0.9976 0.2716 0.9976 0.06849998 0.9976 0.06849998 0.9976 0.1113 0.9953 0.1113 0.992 0.1113 0.992 0.1113 0.992 0.1113 0.9953 0.1113 0.9953 0.1096 0.9989 0.1113 0.9953 0.1113 0.9953 0.1113 0.9953 0.1096 0.9989 0.1096 0.9989 0.06809997 0.9953 0.06979995 0.9989 0.06979995 0.9989 0.06979995 0.9989 0.06809997 0.9953 0.06809997 0.9953 0.01909995 0.947 0.2716 0.947 0.2716 0.947 0.2716 0.947 0.01909995 0.947 0.01909995 0.947 0.06809997 0.9464 0.06979995 0.9499 0.06979995 0.9499 0.06979995 0.9499 0.06809997 0.9464 0.06809997 0.9464 0.06809997 0.9953 0.06809997 0.9348 0.06809997 0.9348 0.06809997 0.9348 0.06809997 0.9953 0.06809997 0.9953 0.06979995 0.9989 0.06979995 0.9499 0.1096 0.9989 0.06809997 0.9348 0.06809997 0.9953 0.06809997 0.9464 0.2716 0.947 0.06849998 0.9976 0.01909995 0.947 0.06849998 0.9976 0.2716 0.947 0.2716 0.9976 0.1113 0.9953 0.06979995 0.9499 0.1113 0.992 0.1096 0.9989 0.06979995 0.9499 0.1113 0.9953 0.06979995 0.9499 0.06809997 0.9953 0.06809997 0.9464 0.06809997 0.9953 0.06979995 0.9499 0.06979995 0.9989 0.1096 0.9989 0.06979995 0.9499 0.06979995 0.9989 0.06809997 0.9348 0.06809997 0.9464 0.06809997 0.9953 0.01909995 0.947 0.2716 0.9976 0.2716 0.947 0.2716 0.9976 0.01909995 0.947 0.06849998 0.9976 0.1113 0.992 0.06979995 0.9499 0.1113 0.9953 0.1113 0.9953 0.06979995 0.9499 0.1096 0.9989 0.06809997 0.9464 0.06979995 0.9989 0.06979995 0.9499 0.06979995 0.9989 0.06809997 0.9464 0.06809997 0.9953 0.05279999 0.7405 0.02779996 0.7281 0.04089999 0.7281 0.02779996 0.7281 0.007799983 0.7629 0.01599997 0.7405 0.007799983 0.7629 0.007799983 0.8186 0.004799962 0.7908 0.02779996 0.7281 0.007799983 0.8186 0.007799983 0.7629 0.007799983 0.8186 0.02779996 0.8534 0.01599997 0.841 0.02779996 0.8534 0.05279999 0.841 0.04089999 0.8534 0.007799983 0.8186 0.05279999 0.841 0.02779996 0.8534 0.02779996 0.7281 0.05279999 0.841 0.007799983 0.8186 0.05279999 0.841 0.06389999 0.7908 0.06099998 0.8186 0.02779996 0.7281 0.06389999 0.7908 0.05279999 0.841 0.05279999 0.7405 0.06389999 0.7908 0.02779996 0.7281 0.06099998 0.7629 0.06389999 0.7908 0.05279999 0.7405 0.04679995 0.8658 0.05119997 0.896 0.05119997 0.8658 0.05119997 0.896 0.04679995 0.8658 0.04679995 0.896 0.05119997 0.8658 0.05559998 0.896 0.05559998 0.8658 0.05559998 0.896 0.05119997 0.8658 0.05119997 0.896 0.05559998 0.8658 0.06 0.896 0.06 0.8658 0.06 0.896 0.05559998 0.8658 0.05559998 0.896 0.06 0.8658 0.06439995 0.896 0.06439995 0.8658 0.06439995 0.896 0.06 0.8658 0.06 0.896 0.002999961 0.8658 0.007399976 0.896 0.007399976 0.8658 0.007399976 0.896 0.002999961 0.8658 0.002999961 0.896 0.007399976 0.8658 0.01179999 0.896 0.01179999 0.8658 0.01179999 0.896 0.007399976 0.8658 0.007399976 0.896 0.01179999 0.8658 0.0162 0.896 0.0162 0.8658 0.0162 0.896 0.01179999 0.8658 0.01179999 0.896 0.0162 0.8658 0.02059996 0.896 0.02059996 0.8658 0.02059996 0.896 0.0162 0.8658 0.0162 0.896 0.02059996 0.8658 0.02489995 0.896 0.02489995 0.8658 0.02489995 0.896 0.02059996 0.8658 0.02059996 0.896 0.02489995 0.8658 0.02929997 0.896 0.02929997 0.8658 0.02929997 0.896 0.02489995 0.8658 0.02489995 0.896 0.02929997 0.8658 0.03369998 0.896 0.03369998 0.8658 0.03369998 0.896 0.02929997 0.8658 0.02929997 0.896 0.03369998 0.8658 0.0381 0.896 0.0381 0.8658 0.0381 0.896 0.03369998 0.8658 0.03369998 0.896 0.0381 0.8658 0.04249995 0.896 0.04249995 0.8658 0.04249995 0.896 0.0381 0.8658 0.0381 0.896 0.04249995 0.8658 0.04679995 0.896 0.04679995 0.8658 0.04679995 0.896 0.04249995 0.8658 0.04249995 0.896 0.06389999 0.7908 0.04049998 0.7938 0.06099998 0.8186 0.06099998 0.8186 0.03709995 0.803 0.05279999 0.841 0.03709995 0.803 0.06099998 0.8186 0.04049998 0.7938 0.05279999 0.841 0.03709995 0.803 0.04089999 0.8534 0.04089999 0.8534 0.03169995 0.803 0.02779996 0.8534 0.03169995 0.803 0.04089999 0.8534 0.03709995 0.803 0.02779996 0.8534 0.03169995 0.803 0.01599997 0.841 0.01599997 0.841 0.02829998 0.7938 0.007799983 0.8186 0.02829998 0.7938 0.01599997 0.841 0.03169995 0.803 0.007799983 0.8186 0.02829998 0.7938 0.004799962 0.7908 0.004799962 0.7908 0.02949994 0.7822 0.007799983 0.7629 0.02949994 0.7822 0.004799962 0.7908 0.02829998 0.7938 0.007799983 0.7629 0.02949994 0.7822 0.01599997 0.7405 0.01599997 0.7405 0.03439998 0.7771 0.02779996 0.7281 0.03439998 0.7771 0.01599997 0.7405 0.02949994 0.7822 0.02779996 0.7281 0.03439998 0.7771 0.04089999 0.7281 0.04089999 0.7281 0.03929996 0.7822 0.05279999 0.7405 0.03929996 0.7822 0.04089999 0.7281 0.03439998 0.7771 0.05279999 0.7405 0.03929996 0.7822 0.06099998 0.7629 0.06099998 0.7629 0.04049998 0.7938 0.06389999 0.7908 0.04049998 0.7938 0.06099998 0.7629 0.03929996 0.7822 0.02359998 0.704 0.01499998 0.7122 0.02029997 0.7122 0.01499998 0.7122 0.01279997 0.6938 0.01169997 0.704 0.01499998 0.7122 0.01759999 0.6893 0.01279997 0.6938 0.02359998 0.704 0.01759999 0.6893 0.01499998 0.7122 0.02239996 0.6938 0.01759999 0.6893 0.02359998 0.704 0.05559998 0.9972 0.0467 0.9425 0.0467 0.9972 0.0467 0.9425 0.05559998 0.9972 0.05559998 0.9425 0.06459999 0.9972 0.05559998 0.9425 0.05559998 0.9972 0.05559998 0.9425 0.06459999 0.9972 0.06459999 0.9425 0.0108 0.9972 0.001799941 0.9425 0.001799941 0.9972 0.001799941 0.9425 0.0108 0.9972 0.0108 0.9425 0.01969999 0.9972 0.0108 0.9425 0.0108 0.9972 0.0108 0.9425 0.01969999 0.9972 0.01969999 0.9425 0.02869999 0.9972 0.01969999 0.9425 0.01969999 0.9972 0.01969999 0.9425 0.02869999 0.9972 0.02869999 0.9425 0.03769999 0.9972 0.02869999 0.9425 0.02869999 0.9972 0.02869999 0.9425 0.03769999 0.9972 0.03769999 0.9425 0.0467 0.9972 0.03769999 0.9425 0.03769999 0.9972 0.03769999 0.9425 0.0467 0.9972 0.0467 0.9425 0.02029997 0.7122 0.02929997 0.7066 0.02359998 0.704 0.02929997 0.7066 0.02029997 0.7122 0.02279996 0.7226 0.01499998 0.7122 0.02279996 0.7226 0.02029997 0.7122 0.02279996 0.7226 0.01499998 0.7122 0.01239997 0.7226 0.01169997 0.704 0.01239997 0.7226 0.01499998 0.7122 0.01239997 0.7226 0.01169997 0.704 0.005899965 0.7066 0.01279997 0.6938 0.005899965 0.7066 0.01169997 0.704 0.005899965 0.7066 0.01279997 0.6938 0.008299946 0.6866 0.01759999 0.6893 0.008299946 0.6866 0.01279997 0.6938 0.008299946 0.6866 0.01759999 0.6893 0.01759999 0.6777 0.02239996 0.6938 0.01759999 0.6777 0.01759999 0.6893 0.01759999 0.6777 0.02239996 0.6938 0.02699995 0.6866 0.02359998 0.704 0.02699995 0.6866 0.02239996 0.6938 0.02699995 0.6866 0.02359998 0.704 0.02929997 0.7066</float_array>
          <technique_common>
            <accessor source="#crewlockba-mesh-map-0-array" count="1500" stride="2">
              <param name="S" type="float"/>
              <param name="T" type="float"/>
            </accessor>
          </technique_common>
        </source>
        <vertices id="crewlockba-mesh-vertices">
          <input semantic="POSITION" source="#crewlockba-mesh-positions"/>
        </vertices>
        <triangles material="crwlckbg1_1-material" count="500">
          <input semantic="VERTEX" source="#crewlockba-mesh-vertices" offset="0"/>
          <input semantic="NORMAL" source="#crewlockba-mesh-normals" offset="1"/>
          <input semantic="TEXCOORD" source="#crewlockba-mesh-map-0" offset="2" set="0"/>
          <p>0 0 0 1 0 1 2 0 2 0 1 3 2 1 4 3 1 5 4 2 6 5 2 7 6 2 8 4 3 9 6 3 10 7 3 11 8 4 12 9 4 13 4 4 14 4 5 15 7 5 16 8 5 17 10 6 18 11 6 19 12 6 20 10 7 21 12 7 22 13 7 23 13 8 24 14 8 25 15 8 26 15 9 27 10 9 28 13 9 29 16 10 30 17 10 31 18 10 32 16 11 33 18 11 34 19 11 35 20 12 36 21 12 37 22 12 38 22 13 39 23 13 40 20 13 41 21 14 42 20 14 43 24 14 44 21 15 45 24 15 46 25 15 47 25 16 48 26 16 49 27 16 50 27 17 51 21 17 52 25 17 53 28 18 54 6 18 55 5 18 56 5 19 57 29 19 58 28 19 59 30 20 60 7 20 61 6 20 62 6 21 63 28 21 64 30 21 65 31 22 66 32 22 67 33 22 68 33 23 69 34 23 70 31 23 71 35 24 72 12 24 73 11 24 74 11 25 75 36 25 76 35 25 77 37 26 78 13 26 79 12 26 80 12 27 81 35 27 82 37 27 83 13 28 84 37 28 85 38 28 86 38 29 87 14 29 88 13 29 89 39 30 90 18 30 91 17 30 92 17 31 93 40 31 94 39 31 95 41 32 96 19 32 97 18 32 98 18 33 99 39 33 100 41 33 101 42 34 102 43 34 103 44 34 104 44 35 105 45 35 106 42 35 107 46 36 108 24 36 109 20 36 110 20 37 111 47 37 112 46 37 113 48 38 114 25 38 115 24 38 116 24 39 117 46 39 118 48 39 119 25 40 120 48 40 121 26 40 122 49 41 123 28 41 124 29 41 125 29 41 126 50 41 127 49 41 128 51 42 129 30 42 130 28 42 131 28 43 132 49 43 133 51 43 134 52 44 135 31 44 136 34 44 137 34 44 138 53 44 139 52 44 140 54 45 141 35 45 142 36 45 143 36 46 144 55 46 145 54 46 146 56 47 147 37 47 148 35 47 149 35 47 150 54 47 151 56 47 152 37 48 153 56 48 154 57 48 155 57 48 156 40 48 157 38 48 158 37 49 159 57 49 160 38 49 161 58 50 162 39 50 163 40 50 164 40 50 165 57 50 166 58 50 167 59 51 168 41 51 169 39 51 170 39 52 171 58 52 172 59 52 173 60 53 174 42 53 175 45 53 176 45 53 177 61 53 178 60 53 179 62 54 180 46 54 181 47 54 182 47 55 183 63 55 184 62 55 185 64 56 186 48 56 187 46 56 188 46 57 189 62 57 190 64 57 191 48 58 192 64 58 193 50 58 194 50 58 195 29 58 196 48 58 197 65 59 198 49 59 199 50 59 200 50 60 201 66 60 202 65 60 203 67 61 204 51 61 205 49 61 206 49 62 207 65 62 208 67 62 209 68 63 210 52 63 211 53 63 212 53 64 213 69 64 214 68 64 215 70 65 216 54 65 217 55 65 218 55 66 219 71 66 220 70 66 221 72 67 222 56 67 223 54 67 224 54 68 225 70 68 226 72 68 227 73 69 228 57 69 229 56 69 230 56 69 231 72 69 232 73 69 233 74 70 234 58 70 235 57 70 236 57 71 237 73 71 238 74 71 239 75 72 240 59 72 241 58 72 242 58 73 243 74 73 244 75 73 245 76 74 246 60 74 247 61 74 248 61 75 249 77 75 250 76 75 251 78 76 252 62 76 253 63 76 254 63 77 255 79 77 256 78 77 257 80 78 258 64 78 259 62 78 260 62 79 261 78 79 262 80 79 263 66 80 264 50 80 265 64 80 266 64 80 267 80 80 268 66 80 269 66 81 270 81 81 271 65 81 272 65 82 273 81 82 274 67 82 275 82 83 276 68 83 277 69 83 278 69 83 279 83 83 280 82 83 281 84 84 282 85 84 283 86 84 284 86 85 285 85 85 286 87 85 287 88 86 288 89 86 289 87 86 290 87 86 291 85 86 292 88 86 293 89 87 294 88 87 295 90 87 296 90 88 297 88 88 298 91 88 299 92 89 300 76 89 301 77 89 302 77 89 303 93 89 304 92 89 305 79 90 306 94 90 307 78 90 308 78 91 309 94 91 310 80 91 311 81 92 312 66 92 313 80 92 314 80 92 315 94 92 316 81 92 317 95 93 318 96 93 319 97 93 320 97 93 321 98 93 322 95 93 323 99 94 324 100 94 325 2 94 326 2 95 327 1 95 328 99 95 329 17 96 330 16 96 331 15 96 332 15 97 333 14 97 334 17 97 335 5 98 336 4 98 337 27 98 338 27 99 339 26 99 340 5 99 341 38 100 342 40 100 343 17 100 344 17 101 345 14 101 346 38 101 347 48 102 348 29 102 349 5 102 350 5 103 351 26 103 352 48 103 353 101 93 354 102 93 355 103 93 356 103 93 357 104 93 358 101 93 359 105 104 360 106 104 361 107 104 362 107 104 363 108 104 364 105 104 365 109 48 366 110 48 367 111 48 368 111 48 369 112 48 370 109 48 371 113 44 372 114 44 373 115 44 374 115 44 375 116 44 376 113 44 377 117 93 378 118 93 379 119 93 380 119 93 381 120 93 382 121 93 383 119 105 384 121 105 385 122 105 386 117 106 387 119 106 388 122 106 389 123 104 390 124 104 391 125 104 392 125 104 393 126 104 394 123 104 395 118 48 396 124 48 397 123 48 398 123 48 399 119 48 400 118 48 401 127 58 402 128 58 403 129 58 404 129 58 405 130 58 406 127 58 407 120 58 408 131 58 409 132 58 410 132 58 411 121 58 412 120 58 413 133 107 414 134 107 415 135 107 416 133 108 417 135 108 418 103 108 419 103 53 420 102 53 421 136 53 422 133 109 423 103 109 424 136 109 425 137 110 426 138 110 427 139 110 428 139 111 429 140 111 430 137 111 431 134 112 432 139 112 433 138 112 434 138 113 435 135 113 436 134 113 437 141 114 438 133 114 439 136 114 440 136 115 441 142 115 442 141 115 443 112 116 444 143 116 445 104 116 446 101 117 447 114 117 448 127 117 449 144 118 450 111 118 451 105 118 452 128 119 453 113 119 454 145 119 455 130 120 456 136 120 457 102 120 458 135 121 459 109 121 460 103 121 461 106 122 462 110 122 463 138 122 464 142 123 465 129 123 466 146 123 467 102 124 468 101 124 469 127 124 470 127 125 471 130 125 472 102 125 473 109 126 474 112 126 475 104 126 476 104 126 477 103 126 478 109 126 479 115 127 480 114 127 481 101 127 482 101 128 483 104 128 484 143 128 485 101 129 486 143 129 487 147 129 488 115 130 489 101 130 490 147 130 491 107 131 492 106 131 493 138 131 494 138 132 495 137 132 496 107 132 497 129 133 498 128 133 499 145 133 500 145 134 501 146 134 502 129 134 503 148 135 504 144 135 505 105 135 506 105 136 507 108 136 508 148 136 509 106 137 510 105 137 511 111 137 512 111 138 513 110 138 514 106 138 515 110 139 516 109 139 517 135 139 518 135 139 519 138 139 520 110 139 521 144 140 522 143 140 523 112 140 524 112 141 525 111 141 526 144 141 527 128 142 528 127 142 529 114 142 530 114 143 531 113 143 532 128 143 533 142 144 534 136 144 535 130 144 536 130 144 537 129 144 538 142 144 539 149 104 540 150 104 541 146 104 542 146 104 543 145 104 544 149 104 545 151 44 546 115 44 547 147 44 548 147 44 549 152 44 550 151 44 551 153 104 552 154 104 553 132 104 554 132 104 555 131 104 556 153 104 557 155 145 558 156 145 559 141 145 560 141 146 561 142 146 562 155 146 563 150 147 564 155 147 565 142 147 566 142 148 567 146 148 568 150 148 569 116 149 570 149 149 571 145 149 572 145 150 573 113 150 574 116 150 575 157 104 576 158 104 577 159 104 578 159 104 579 160 104 580 157 104 581 152 151 582 161 151 583 162 151 584 162 152 585 151 152 586 152 152 587 148 44 588 147 44 589 143 44 590 143 44 591 144 44 592 148 44 593 108 58 594 107 58 595 161 58 596 115 44 597 151 44 598 116 44 599 158 153 600 157 153 601 126 153 602 126 58 603 125 58 604 158 58 605 137 154 606 140 154 607 161 154 608 107 58 609 137 58 610 161 58 611 161 58 612 152 58 613 148 58 614 148 155 615 108 155 616 161 155 617 122 53 618 154 53 619 159 53 620 150 156 621 149 156 622 162 156 623 147 53 624 148 53 625 152 53 626 160 48 627 159 48 628 154 48 629 154 157 630 153 157 631 160 157 632 156 48 633 155 48 634 162 48 635 155 48 636 150 48 637 162 48 638 151 158 639 162 158 640 149 158 641 149 48 642 116 48 643 151 48 644 117 44 645 158 44 646 125 44 647 163 93 648 164 93 649 165 93 650 165 93 651 166 93 652 167 93 653 167 159 654 168 159 655 169 159 656 165 93 657 167 93 658 169 93 659 169 160 660 170 160 661 171 160 662 171 93 663 172 93 664 173 93 665 169 161 666 171 161 667 173 161 668 165 162 669 169 162 670 173 162 671 173 93 672 174 93 673 175 93 674 165 93 675 173 93 676 175 93 677 163 93 678 165 93 679 175 93 680 176 163 681 163 163 682 175 163 683 177 164 684 178 164 685 179 164 686 179 165 687 180 165 688 177 165 689 178 166 690 181 166 691 182 166 692 182 167 693 179 167 694 178 167 695 181 168 696 183 168 697 184 168 698 184 169 699 182 169 700 181 169 701 183 58 702 185 58 703 186 58 704 186 58 705 184 58 706 183 58 707 187 170 708 188 170 709 189 170 710 189 171 711 190 171 712 187 171 713 188 172 714 191 172 715 192 172 716 192 173 717 189 173 718 188 173 719 191 174 720 193 174 721 194 174 722 194 175 723 192 175 724 191 175 725 193 176 726 195 176 727 196 176 728 196 177 729 194 177 730 193 177 731 195 178 732 197 178 733 198 178 734 198 179 735 196 179 736 195 179 737 197 180 738 199 180 739 200 180 740 200 181 741 198 181 742 197 181 743 199 48 744 201 48 745 202 48 746 202 48 747 200 48 748 199 48 749 201 182 750 203 182 751 204 182 752 204 183 753 202 183 754 201 183 755 203 184 756 205 184 757 206 184 758 206 185 759 204 185 760 203 185 761 205 186 762 177 186 763 180 186 764 180 187 765 206 187 766 205 187 767 207 188 768 208 188 769 209 188 770 208 189 771 210 189 772 211 189 773 211 190 774 209 190 775 208 190 776 210 191 777 212 191 778 211 191 779 212 192 780 213 192 781 214 192 782 214 193 783 211 193 784 212 193 785 213 194 786 215 194 787 214 194 788 215 195 789 216 195 790 217 195 791 217 196 792 214 196 793 215 196 794 216 197 795 218 197 796 217 197 797 218 198 798 219 198 799 220 198 800 220 199 801 217 199 802 218 199 803 219 200 804 221 200 805 220 200 806 221 201 807 222 201 808 223 201 809 223 202 810 220 202 811 221 202 812 222 203 813 224 203 814 223 203 815 224 204 816 225 204 817 226 204 818 226 205 819 223 205 820 224 205 821 225 206 822 227 206 823 226 206 824 227 207 825 207 207 826 209 207 827 209 208 828 226 208 829 227 208 830 228 104 831 229 104 832 230 104 833 230 209 834 231 209 835 232 209 836 230 210 837 232 210 838 233 210 839 228 211 840 230 211 841 233 211 842 234 212 843 228 212 844 233 212 845 235 213 846 236 213 847 237 213 848 237 214 849 238 214 850 235 214 851 239 58 852 235 58 853 238 58 854 238 58 855 240 58 856 239 58 857 241 215 858 242 215 859 243 215 860 243 216 861 244 216 862 241 216 863 245 217 864 241 217 865 244 217 866 244 218 867 246 218 868 245 218 869 247 219 870 245 219 871 246 219 872 246 220 873 248 220 874 247 220 875 249 221 876 247 221 877 248 221 878 248 221 879 250 221 880 249 221 881 236 222 882 249 222 883 250 222 884 250 223 885 237 223 886 236 223 887 229 224 888 228 224 889 251 224 890 251 225 891 252 225 892 229 225 893 230 226 894 229 226 895 252 226 896 252 227 897 253 227 898 230 227 899 231 228 900 230 228 901 253 228 902 253 229 903 254 229 904 231 229 905 232 230 906 231 230 907 254 230 908 254 231 909 255 231 910 232 231 911 233 232 912 232 232 913 255 232 914 255 233 915 256 233 916 233 233 917 234 234 918 233 234 919 256 234 920 256 235 921 257 235 922 234 235 923 228 236 924 234 236 925 257 236 926 257 237 927 251 237 928 228 237 929 258 93 930 259 93 931 260 93 932 259 93 933 258 93 934 261 93 935 262 104 936 263 104 937 264 104 938 263 104 939 262 104 940 265 104 941 266 48 942 267 48 943 268 48 944 267 48 945 266 48 946 269 48 947 270 53 948 271 53 949 272 53 950 271 53 951 270 53 952 273 53 953 117 93 954 274 93 955 118 93 956 274 93 957 121 93 958 275 93 959 274 238 960 122 238 961 121 238 962 117 239 963 122 239 964 274 239 965 276 104 966 125 104 967 124 104 968 125 104 969 276 104 970 277 104 971 118 48 972 276 48 973 124 48 974 276 48 975 118 48 976 274 48 977 278 58 978 279 58 979 280 58 980 279 58 981 278 58 982 281 58 983 275 58 984 132 58 985 282 58 986 132 58 987 275 58 988 121 58 989 283 44 990 284 44 991 285 44 992 283 240 993 259 240 994 284 240 995 259 241 996 286 241 997 260 241 998 283 242 999 286 242 1000 259 242 1001 287 44 1002 288 44 1003 289 44 1004 288 44 1005 287 44 1006 290 44 1007 285 243 1008 289 243 1009 288 243 1010 289 244 1011 285 244 1012 284 244 1013 291 245 1014 286 245 1015 283 245 1016 286 246 1017 291 246 1018 292 246 1019 269 247 1020 261 247 1021 293 247 1022 258 248 1023 278 248 1024 272 248 1025 294 122 1026 262 122 1027 267 122 1028 280 123 1029 295 123 1030 270 123 1031 281 249 1032 260 249 1033 286 249 1034 284 250 1035 259 250 1036 266 250 1037 264 251 1038 289 251 1039 268 251 1040 292 252 1041 296 252 1042 279 252 1043 260 253 1044 278 253 1045 258 253 1046 278 254 1047 260 254 1048 281 254 1049 266 255 1050 261 255 1051 269 255 1052 261 256 1053 266 256 1054 259 256 1055 271 257 1056 258 257 1057 272 257 1058 258 258 1059 293 258 1060 261 258 1061 258 259 1062 297 259 1063 293 259 1064 271 260 1065 297 260 1066 258 260 1067 263 261 1068 289 261 1069 264 261 1070 289 262 1071 263 262 1072 287 262 1073 279 263 1074 295 263 1075 280 263 1076 295 264 1077 279 264 1078 296 264 1079 298 265 1080 262 265 1081 294 265 1082 262 266 1083 298 266 1084 265 266 1085 264 267 1086 267 267 1087 262 267 1088 267 268 1089 264 268 1090 268 268 1091 268 269 1092 284 269 1093 266 269 1094 284 270 1095 268 270 1096 289 270 1097 294 271 1098 269 271 1099 293 271 1100 269 271 1101 294 271 1102 267 271 1103 280 272 1104 272 272 1105 278 272 1106 272 272 1107 280 272 1108 270 272 1109 292 273 1110 281 273 1111 286 273 1112 281 274 1113 292 274 1114 279 274 1115 299 104 1116 296 104 1117 300 104 1118 296 104 1119 299 104 1120 295 104 1121 301 53 1122 297 53 1123 271 53 1124 297 53 1125 301 53 1126 302 53 1127 303 104 1128 132 104 1129 154 104 1130 132 104 1131 303 104 1132 282 104 1133 304 44 1134 291 44 1135 305 44 1136 291 44 1137 304 44 1138 292 44 1139 300 275 1140 292 275 1141 304 275 1142 292 276 1143 300 276 1144 296 276 1145 273 148 1146 295 148 1147 299 148 1148 295 147 1149 273 147 1150 270 147 1151 306 104 1152 159 104 1153 158 104 1154 159 104 1155 306 104 1156 307 104 1157 302 277 1158 308 277 1159 309 277 1160 308 278 1161 302 278 1162 301 278 1163 298 53 1164 293 53 1165 297 53 1166 293 53 1167 298 53 1168 294 53 1169 265 58 1170 309 58 1171 263 58 1172 271 279 1173 273 279 1174 301 279 1175 158 280 1176 277 280 1177 306 280 1178 277 58 1179 158 58 1180 125 58 1181 287 58 1182 309 58 1183 290 58 1184 263 58 1185 309 58 1186 287 58 1187 309 58 1188 298 58 1189 302 58 1190 298 281 1191 309 281 1192 265 281 1193 300 282 1194 308 282 1195 299 282 1196 297 283 1197 302 283 1198 298 283 1199 307 48 1200 154 48 1201 159 48 1202 154 157 1203 307 157 1204 303 157 1205 305 48 1206 308 48 1207 304 48 1208 304 48 1209 308 48 1210 300 48 1211 301 284 1212 299 284 1213 308 284 1214 299 48 1215 301 48 1216 273 48 1217 310 93 1218 311 93 1219 312 93 1220 311 93 1221 313 93 1222 314 93 1223 313 285 1224 315 285 1225 316 285 1226 311 93 1227 315 93 1228 313 93 1229 315 286 1230 317 286 1231 318 286 1232 317 93 1233 319 93 1234 320 93 1235 315 287 1236 319 287 1237 317 287 1238 311 288 1239 319 288 1240 315 288 1241 319 93 1242 321 93 1243 322 93 1244 311 93 1245 321 93 1246 319 93 1247 310 93 1248 321 93 1249 311 93 1250 323 289 1251 321 289 1252 310 289 1253 324 290 1254 325 290 1255 326 290 1256 325 291 1257 324 291 1258 327 291 1259 326 292 1260 328 292 1261 329 292 1262 328 293 1263 326 293 1264 325 293 1265 329 294 1266 330 294 1267 331 294 1268 330 295 1269 329 295 1270 328 295 1271 331 58 1272 332 58 1273 333 58 1274 332 58 1275 331 58 1276 330 58 1277 334 296 1278 335 296 1279 336 296 1280 335 169 1281 334 169 1282 337 169 1283 336 166 1284 338 166 1285 339 166 1286 338 297 1287 336 297 1288 335 297 1289 339 298 1290 340 298 1291 341 298 1292 340 165 1293 339 165 1294 338 165 1295 341 186 1296 342 186 1297 343 186 1298 342 299 1299 341 299 1300 340 299 1301 343 300 1302 344 300 1303 345 300 1304 344 185 1305 343 185 1306 342 185 1307 345 182 1308 346 182 1309 347 182 1310 346 301 1311 345 301 1312 344 301 1313 347 48 1314 348 48 1315 349 48 1316 348 48 1317 347 48 1318 346 48 1319 349 302 1320 350 302 1321 351 302 1322 350 303 1323 349 303 1324 348 303 1325 351 304 1326 352 304 1327 353 304 1328 352 305 1329 351 305 1330 350 305 1331 353 306 1332 327 306 1333 324 306 1334 327 307 1335 353 307 1336 352 307 1337 354 308 1338 355 308 1339 356 308 1340 356 309 1341 357 309 1342 358 309 1343 357 310 1344 356 310 1345 355 310 1346 358 311 1347 357 311 1348 359 311 1349 359 312 1350 360 312 1351 361 312 1352 360 313 1353 359 313 1354 357 313 1355 361 314 1356 360 314 1357 362 314 1358 362 315 1359 363 315 1360 364 315 1361 363 316 1362 362 316 1363 360 316 1364 364 317 1365 363 317 1366 365 317 1367 365 318 1368 366 318 1369 367 318 1370 366 319 1371 365 319 1372 363 319 1373 367 320 1374 366 320 1375 368 320 1376 368 321 1377 369 321 1378 370 321 1379 369 322 1380 368 322 1381 366 322 1382 370 323 1383 369 323 1384 371 323 1385 371 324 1386 372 324 1387 373 324 1388 372 325 1389 371 325 1390 369 325 1391 373 326 1392 372 326 1393 374 326 1394 374 327 1395 355 327 1396 354 327 1397 355 328 1398 374 328 1399 372 328 1400 375 104 1401 376 104 1402 377 104 1403 376 329 1404 378 329 1405 379 329 1406 376 330 1407 380 330 1408 378 330 1409 375 331 1410 380 331 1411 376 331 1412 381 332 1413 380 332 1414 375 332 1415 382 333 1416 383 333 1417 384 333 1418 383 334 1419 382 334 1420 385 334 1421 386 58 1422 385 58 1423 382 58 1424 385 58 1425 386 58 1426 387 58 1427 388 213 1428 389 213 1429 390 213 1430 389 214 1431 388 214 1432 391 214 1433 392 222 1434 391 222 1435 388 222 1436 391 335 1437 392 335 1438 393 335 1439 394 336 1440 393 336 1441 392 336 1442 393 221 1443 394 221 1444 395 221 1445 396 219 1446 395 219 1447 394 219 1448 395 337 1449 396 337 1450 397 337 1451 384 217 1452 397 217 1453 396 217 1454 397 338 1455 384 338 1456 383 338 1457 377 339 1458 398 339 1459 375 339 1460 398 340 1461 377 340 1462 399 340 1463 376 341 1464 399 341 1465 377 341 1466 399 342 1467 376 342 1468 400 342 1469 379 343 1470 400 343 1471 376 343 1472 400 344 1473 379 344 1474 401 344 1475 378 345 1476 401 345 1477 379 345 1478 401 346 1479 378 346 1480 402 346 1481 380 347 1482 402 347 1483 378 347 1484 402 348 1485 380 348 1486 403 348 1487 381 349 1488 403 349 1489 380 349 1490 403 350 1491 381 350 1492 404 350 1493 375 351 1494 404 351 1495 381 351 1496 404 352 1497 375 352 1498 398 352 1499</p>
        </triangles>
      </mesh>
    </geometry>
  </library_geometries>
  <library_controllers/>
  <library_visual_scenes>
    <visual_scene id="Scene" name="Scene">
      <node id="Camera" name="Camera" type="NODE">
        <matrix sid="transform">0.6859207 -0.3240135 0.6515582 7.481132 0.7276763 0.3054208 -0.6141704 -6.50764 0 0.8953956 0.4452714 5.343665 0 0 0 1</matrix>
        <instance_camera url="#Camera-camera"/>
      </node>
      <node id="Lamp" name="Lamp" type="NODE">
        <matrix sid="transform">-0.2908646 -0.7711008 0.5663932 4.076245 0.9551712 -0.1998834 0.2183912 1.005454 -0.05518906 0.6045247 0.7946723 5.903862 0 0 0 1</matrix>
        <instance_light url="#Lamp-light"/>
      </node>
      <node id="crewlockba" name="crewlockba" type="NODE">
        <matrix sid="transform">0.05 0 0 0 0 0.05 0 0 0 0 0.05 0 0 0 0 1</matrix>
        <instance_geometry url="#crewlockba-mesh" name="crewlockba">
          <bind_material>
            <technique_common>
              <instance_material symbol="crwlckbg1_1-material" target="#crwlckbg1_1-material"/>
            </technique_common>
          </bind_material>
        </instance_geometry>
      </node>
    </visual_scene>
  </library_visual_scenes>
  <scene>
    <instance_visual_scene url="#Scene"/>
  </scene>
</COLLADA>